documents/senior design/ems/load_sig/recordedwaveforms/Different Computers/Dell.csv

Model,DPO3014
Firmware Version,2.23

Waveform Type,Analog
Point Format,Y
Horizontal Units,s
Horizontal Scale,0.02
Horizontal Delay,0
Sample Interval,2e-05
Record Length,10000
Gating,0.0% to 100.0%
Probe Attenuation,1
Vertical Units,V
Vertical Offset,0
Vertical Scale,2
Vertical Position,0
Label,
TIME,CH1
-1.000e-01,-0.16
-9.998e-02,-0.08
-9.996e-02,-0.08
-9.994e-02,0
-9.992e-02,0
-9.990e-02,0
-9.988e-02,0
-9.986e-02,0.08
-9.984e-02,0.08
-9.982e-02,0.16
-9.980e-02,-0.8
-9.978e-02,-1.6
-9.976e-02,-0.64
-9.974e-02,-1.12
-9.972e-02,-0.96
-9.970e-02,-0.64
-9.968e-02,0
-9.966e-02,0.56
-9.964e-02,0.88
-9.962e-02,0.64
-9.960e-02,0.64
-9.958e-02,0.8
-9.956e-02,1.28
-9.954e-02,1.04
-9.952e-02,1.52
-9.950e-02,1.6
-9.948e-02,1.76
-9.946e-02,0.08
-9.944e-02,-0.08
-9.942e-02,0.24
-9.940e-02,0.48
-9.938e-02,0.56
-9.936e-02,0.56
-9.934e-02,0.8
-9.932e-02,0.48
-9.930e-02,0.56
-9.928e-02,0.4
-9.926e-02,0.72
-9.924e-02,0.8
-9.922e-02,0.72
-9.920e-02,0.56
-9.918e-02,0.56
-9.916e-02,0.88
-9.914e-02,0.88
-9.912e-02,1.04
-9.910e-02,0.96
-9.908e-02,0.96
-9.906e-02,0.88
-9.904e-02,1.04
-9.902e-02,1.04
-9.900e-02,0.88
-9.898e-02,1.12
-9.896e-02,1.04
-9.894e-02,1.12
-9.892e-02,1.12
-9.890e-02,1.2
-9.888e-02,1.28
-9.886e-02,1.2
-9.884e-02,1.28
-9.882e-02,1.44
-9.880e-02,1.36
-9.878e-02,1.6
-9.876e-02,1.6
-9.874e-02,1.52
-9.872e-02,1.44
-9.870e-02,1.36
-9.868e-02,1.6
-9.866e-02,1.6
-9.864e-02,1.6
-9.862e-02,1.68
-9.860e-02,1.6
-9.858e-02,1.76
-9.856e-02,1.76
-9.854e-02,1.76
-9.852e-02,1.92
-9.850e-02,1.84
-9.848e-02,1.92
-9.846e-02,2
-9.844e-02,1.84
-9.842e-02,1.92
-9.840e-02,2
-9.838e-02,2
-9.836e-02,2.08
-9.834e-02,1.92
-9.832e-02,2
-9.830e-02,2.08
-9.828e-02,2.16
-9.826e-02,2.4
-9.824e-02,2.4
-9.822e-02,2.48
-9.820e-02,2.48
-9.818e-02,2.24
-9.816e-02,2.16
-9.814e-02,2.32
-9.812e-02,2.24
-9.810e-02,2.24
-9.808e-02,2.32
-9.806e-02,2.48
-9.804e-02,2.4
-9.802e-02,2.4
-9.800e-02,2.72
-9.798e-02,2.56
-9.796e-02,2.72
-9.794e-02,2.64
-9.792e-02,2.64
-9.790e-02,2.64
-9.788e-02,2.8
-9.786e-02,2.64
-9.784e-02,2.72
-9.782e-02,2.8
-9.780e-02,2.72
-9.778e-02,2.72
-9.776e-02,2.96
-9.774e-02,3.04
-9.772e-02,3.12
-9.770e-02,2.96
-9.768e-02,3.12
-9.766e-02,2.96
-9.764e-02,3.04
-9.762e-02,3.2
-9.760e-02,3.28
-9.758e-02,3.28
-9.756e-02,3.12
-9.754e-02,3.2
-9.752e-02,3.28
-9.750e-02,3.6
-9.748e-02,3.12
-9.746e-02,3.28
-9.744e-02,3.28
-9.742e-02,3.28
-9.740e-02,3.52
-9.738e-02,3.44
-9.736e-02,3.52
-9.734e-02,3.52
-9.732e-02,3.36
-9.730e-02,3.36
-9.728e-02,3.36
-9.726e-02,3.6
-9.724e-02,3.84
-9.722e-02,3.68
-9.720e-02,3.52
-9.718e-02,3.44
-9.716e-02,3.52
-9.714e-02,3.68
-9.712e-02,3.68
-9.710e-02,3.76
-9.708e-02,3.68
-9.706e-02,3.76
-9.704e-02,3.76
-9.702e-02,3.84
-9.700e-02,3.92
-9.698e-02,3.84
-9.696e-02,3.92
-9.694e-02,3.92
-9.692e-02,3.84
-9.690e-02,4
-9.688e-02,3.84
-9.686e-02,3.84
-9.684e-02,3.84
-9.682e-02,4
-9.680e-02,3.84
-9.678e-02,3.92
-9.676e-02,4
-9.674e-02,4
-9.672e-02,3.84
-9.670e-02,4
-9.668e-02,4
-9.666e-02,3.84
-9.664e-02,4
-9.662e-02,4
-9.660e-02,4.08
-9.658e-02,4.08
-9.656e-02,3.92
-9.654e-02,4
-9.652e-02,4.16
-9.650e-02,3.92
-9.648e-02,4
-9.646e-02,4.08
-9.644e-02,4.24
-9.642e-02,4.08
-9.640e-02,4.16
-9.638e-02,4.24
-9.636e-02,4.08
-9.634e-02,4
-9.632e-02,3.92
-9.630e-02,4.08
-9.628e-02,4.16
-9.626e-02,4.08
-9.624e-02,4
-9.622e-02,4.08
-9.620e-02,4
-9.618e-02,4
-9.616e-02,4.08
-9.614e-02,4.16
-9.612e-02,4.24
-9.610e-02,4
-9.608e-02,3.92
-9.606e-02,4.24
-9.604e-02,4.08
-9.602e-02,4
-9.600e-02,4.08
-9.598e-02,4.08
-9.596e-02,4
-9.594e-02,4.24
-9.592e-02,4
-9.590e-02,4.24
-9.588e-02,4.08
-9.586e-02,3.92
-9.584e-02,4.16
-9.582e-02,4
-9.580e-02,4.32
-9.578e-02,4.08
-9.576e-02,4.16
-9.574e-02,3.92
-9.572e-02,4.16
-9.570e-02,4.32
-9.568e-02,4.08
-9.566e-02,3.92
-9.564e-02,3.92
-9.562e-02,4.24
-9.560e-02,4.16
-9.558e-02,4
-9.556e-02,4
-9.554e-02,4
-9.552e-02,4.24
-9.550e-02,4
-9.548e-02,4.16
-9.546e-02,4.08
-9.544e-02,4.24
-9.542e-02,4.24
-9.540e-02,4
-9.538e-02,3.92
-9.536e-02,4
-9.534e-02,4.08
-9.532e-02,4.08
-9.530e-02,4
-9.528e-02,4.16
-9.526e-02,4.08
-9.524e-02,4.08
-9.522e-02,3.92
-9.520e-02,4.08
-9.518e-02,4
-9.516e-02,4.16
-9.514e-02,3.92
-9.512e-02,3.92
-9.510e-02,3.92
-9.508e-02,4.24
-9.506e-02,4.24
-9.504e-02,3.84
-9.502e-02,3.84
-9.500e-02,4
-9.498e-02,4.16
-9.496e-02,4.16
-9.494e-02,4
-9.492e-02,3.92
-9.490e-02,4
-9.488e-02,4
-9.486e-02,3.76
-9.484e-02,4
-9.482e-02,3.76
-9.480e-02,3.92
-9.478e-02,4.16
-9.476e-02,4.08
-9.474e-02,3.84
-9.472e-02,3.84
-9.470e-02,3.92
-9.468e-02,3.92
-9.466e-02,3.84
-9.464e-02,3.84
-9.462e-02,3.92
-9.460e-02,4
-9.458e-02,4
-9.456e-02,3.84
-9.454e-02,3.76
-9.452e-02,3.76
-9.450e-02,3.84
-9.448e-02,4
-9.446e-02,3.84
-9.444e-02,3.76
-9.442e-02,3.6
-9.440e-02,3.76
-9.438e-02,3.84
-9.436e-02,3.68
-9.434e-02,3.84
-9.432e-02,4
-9.430e-02,3.84
-9.428e-02,3.68
-9.426e-02,3.76
-9.424e-02,3.84
-9.422e-02,3.84
-9.420e-02,3.6
-9.418e-02,3.68
-9.416e-02,3.76
-9.414e-02,3.76
-9.412e-02,3.76
-9.410e-02,3.76
-9.408e-02,3.92
-9.406e-02,3.76
-9.404e-02,3.76
-9.402e-02,3.68
-9.400e-02,3.6
-9.398e-02,3.6
-9.396e-02,3.6
-9.394e-02,3.52
-9.392e-02,3.6
-9.390e-02,3.44
-9.388e-02,3.36
-9.386e-02,3.52
-9.384e-02,3.28
-9.382e-02,3.28
-9.380e-02,3.36
-9.378e-02,3.12
-9.376e-02,3.2
-9.374e-02,2.96
-9.372e-02,3.04
-9.370e-02,3.04
-9.368e-02,3.12
-9.366e-02,3.12
-9.364e-02,2.88
-9.362e-02,2.96
-9.360e-02,3.04
-9.358e-02,2.96
-9.356e-02,2.8
-9.354e-02,2.72
-9.352e-02,2.64
-9.350e-02,2.64
-9.348e-02,2.64
-9.346e-02,2.72
-9.344e-02,2.8
-9.342e-02,2.48
-9.340e-02,2.56
-9.338e-02,2.56
-9.336e-02,2.56
-9.334e-02,2.56
-9.332e-02,2.4
-9.330e-02,2.4
-9.328e-02,2.32
-9.326e-02,2.48
-9.324e-02,2.24
-9.322e-02,2.16
-9.320e-02,2.16
-9.318e-02,2.16
-9.316e-02,2.24
-9.314e-02,2.16
-9.312e-02,2.08
-9.310e-02,2.16
-9.308e-02,2.24
-9.306e-02,2.32
-9.304e-02,2.16
-9.302e-02,2
-9.300e-02,1.92
-9.298e-02,2.08
-9.296e-02,1.76
-9.294e-02,2.16
-9.292e-02,2.08
-9.290e-02,2
-9.288e-02,1.76
-9.286e-02,1.76
-9.284e-02,1.92
-9.282e-02,1.92
-9.280e-02,2
-9.278e-02,2.08
-9.276e-02,1.68
-9.274e-02,1.76
-9.272e-02,1.6
-9.270e-02,1.44
-9.268e-02,1.52
-9.266e-02,1.76
-9.264e-02,1.76
-9.262e-02,1.84
-9.260e-02,1.52
-9.258e-02,1.44
-9.256e-02,1.52
-9.254e-02,1.44
-9.252e-02,1.44
-9.250e-02,1.44
-9.248e-02,1.36
-9.246e-02,1.44
-9.244e-02,1.2
-9.242e-02,1.36
-9.240e-02,1.52
-9.238e-02,1.28
-9.236e-02,1.2
-9.234e-02,1.2
-9.232e-02,1.12
-9.230e-02,1.2
-9.228e-02,1.2
-9.226e-02,1.2
-9.224e-02,1.2
-9.222e-02,1.04
-9.220e-02,1.04
-9.218e-02,1.04
-9.216e-02,0.88
-9.214e-02,0.8
-9.212e-02,0.8
-9.210e-02,0.8
-9.208e-02,0.72
-9.206e-02,0.72
-9.204e-02,0.72
-9.202e-02,0.4
-9.200e-02,0.64
-9.198e-02,0.64
-9.196e-02,0.72
-9.194e-02,0.64
-9.192e-02,0.56
-9.190e-02,0.64
-9.188e-02,0.4
-9.186e-02,0.4
-9.184e-02,0.32
-9.182e-02,0.24
-9.180e-02,0.24
-9.178e-02,0.24
-9.176e-02,0.32
-9.174e-02,0.08
-9.172e-02,0.24
-9.170e-02,0.16
-9.168e-02,0.24
-9.166e-02,0.24
-9.164e-02,0.08
-9.162e-02,0
-9.160e-02,-0.08
-9.158e-02,0
-9.156e-02,-0.08
-9.154e-02,-0.08
-9.152e-02,-0.08
-9.150e-02,0.08
-9.148e-02,-0.08
-9.146e-02,0.24
-9.144e-02,1.76
-9.142e-02,0.4
-9.140e-02,0.8
-9.138e-02,0.64
-9.136e-02,0
-9.134e-02,-0.48
-9.132e-02,-0.96
-9.130e-02,-0.24
-9.128e-02,-0.56
-9.126e-02,-0.64
-9.124e-02,-0.96
-9.122e-02,-1.12
-9.120e-02,-1.12
-9.118e-02,-1.36
-9.116e-02,-1.68
-9.114e-02,-1.2
-9.112e-02,0.4
-9.110e-02,0
-9.108e-02,-0.08
-9.106e-02,-0.64
-9.104e-02,-0.48
-9.102e-02,-0.64
-9.100e-02,-0.72
-9.098e-02,-0.48
-9.096e-02,-0.32
-9.094e-02,-0.56
-9.092e-02,-0.8
-9.090e-02,-0.56
-9.088e-02,-0.56
-9.086e-02,-0.64
-9.084e-02,-0.8
-9.082e-02,-0.88
-9.080e-02,-0.8
-9.078e-02,-0.88
-9.076e-02,-0.88
-9.074e-02,-0.96
-9.072e-02,-0.96
-9.070e-02,-0.88
-9.068e-02,-1.04
-9.066e-02,-0.88
-9.064e-02,-1.04
-9.062e-02,-1.12
-9.060e-02,-1.04
-9.058e-02,-1.12
-9.056e-02,-1.2
-9.054e-02,-1.28
-9.052e-02,-1.28
-9.050e-02,-1.28
-9.048e-02,-1.2
-9.046e-02,-1.36
-9.044e-02,-1.36
-9.042e-02,-1.52
-9.040e-02,-1.68
-9.038e-02,-1.52
-9.036e-02,-1.52
-9.034e-02,-1.52
-9.032e-02,-1.44
-9.030e-02,-1.44
-9.028e-02,-1.68
-9.026e-02,-1.76
-9.024e-02,-1.68
-9.022e-02,-1.76
-9.020e-02,-1.76
-9.018e-02,-1.84
-9.016e-02,-1.76
-9.014e-02,-1.92
-9.012e-02,-1.92
-9.010e-02,-2.08
-9.008e-02,-1.76
-9.006e-02,-1.92
-9.004e-02,-1.92
-9.002e-02,-1.92
-9.000e-02,-1.92
-8.998e-02,-1.76
-8.996e-02,-2
-8.994e-02,-2.16
-8.992e-02,-2.32
-8.990e-02,-2.56
-8.988e-02,-2.24
-8.986e-02,-2.32
-8.984e-02,-2.32
-8.982e-02,-2.16
-8.980e-02,-2.4
-8.978e-02,-2.16
-8.976e-02,-2.4
-8.974e-02,-2.16
-8.972e-02,-2.4
-8.970e-02,-2.32
-8.968e-02,-2.48
-8.966e-02,-2.56
-8.964e-02,-2.56
-8.962e-02,-2.64
-8.960e-02,-2.8
-8.958e-02,-2.56
-8.956e-02,-2.64
-8.954e-02,-2.48
-8.952e-02,-2.64
-8.950e-02,-2.72
-8.948e-02,-2.72
-8.946e-02,-2.72
-8.944e-02,-2.88
-8.942e-02,-2.8
-8.940e-02,-2.72
-8.938e-02,-2.88
-8.936e-02,-2.96
-8.934e-02,-3.04
-8.932e-02,-2.96
-8.930e-02,-3.04
-8.928e-02,-2.96
-8.926e-02,-3.12
-8.924e-02,-3.12
-8.922e-02,-3.04
-8.920e-02,-3.2
-8.918e-02,-3.2
-8.916e-02,-3.28
-8.914e-02,-3.28
-8.912e-02,-3.28
-8.910e-02,-3.36
-8.908e-02,-3.2
-8.906e-02,-3.2
-8.904e-02,-3.28
-8.902e-02,-3.36
-8.900e-02,-3.52
-8.898e-02,-3.44
-8.896e-02,-3.44
-8.894e-02,-3.36
-8.892e-02,-3.44
-8.890e-02,-3.6
-8.888e-02,-3.52
-8.886e-02,-3.44
-8.884e-02,-3.52
-8.882e-02,-3.6
-8.880e-02,-3.6
-8.878e-02,-3.68
-8.876e-02,-3.68
-8.874e-02,-3.68
-8.872e-02,-3.68
-8.870e-02,-4
-8.868e-02,-3.92
-8.866e-02,-3.84
-8.864e-02,-3.84
-8.862e-02,-3.84
-8.860e-02,-3.84
-8.858e-02,-3.76
-8.856e-02,-3.84
-8.854e-02,-3.68
-8.852e-02,-3.76
-8.850e-02,-3.84
-8.848e-02,-4.08
-8.846e-02,-4
-8.844e-02,-3.84
-8.842e-02,-4
-8.840e-02,-3.92
-8.838e-02,-3.92
-8.836e-02,-3.92
-8.834e-02,-3.76
-8.832e-02,-3.84
-8.830e-02,-4
-8.828e-02,-4.24
-8.826e-02,-4.16
-8.824e-02,-3.84
-8.822e-02,-3.84
-8.820e-02,-4
-8.818e-02,-4.08
-8.816e-02,-3.92
-8.814e-02,-3.84
-8.812e-02,-3.92
-8.810e-02,-4
-8.808e-02,-4
-8.806e-02,-3.92
-8.804e-02,-3.84
-8.802e-02,-4.08
-8.800e-02,-4.08
-8.798e-02,-4.08
-8.796e-02,-4.24
-8.794e-02,-3.84
-8.792e-02,-3.92
-8.790e-02,-3.84
-8.788e-02,-4.24
-8.786e-02,-4.16
-8.784e-02,-3.92
-8.782e-02,-3.92
-8.780e-02,-3.92
-8.778e-02,-3.92
-8.776e-02,-3.92
-8.774e-02,-4.08
-8.772e-02,-3.92
-8.770e-02,-3.76
-8.768e-02,-3.92
-8.766e-02,-4
-8.764e-02,-4.08
-8.762e-02,-3.92
-8.760e-02,-4.16
-8.758e-02,-4
-8.756e-02,-4.08
-8.754e-02,-3.92
-8.752e-02,-3.92
-8.750e-02,-4
-8.748e-02,-4
-8.746e-02,-4.24
-8.744e-02,-3.76
-8.742e-02,-3.84
-8.740e-02,-3.92
-8.738e-02,-3.92
-8.736e-02,-4.16
-8.734e-02,-3.84
-8.732e-02,-3.92
-8.730e-02,-3.84
-8.728e-02,-3.92
-8.726e-02,-3.76
-8.724e-02,-3.92
-8.722e-02,-3.92
-8.720e-02,-3.92
-8.718e-02,-3.92
-8.716e-02,-4
-8.714e-02,-4.08
-8.712e-02,-3.92
-8.710e-02,-3.92
-8.708e-02,-3.76
-8.706e-02,-4.08
-8.704e-02,-4
-8.702e-02,-3.84
-8.700e-02,-4.08
-8.698e-02,-3.84
-8.696e-02,-4
-8.694e-02,-3.84
-8.692e-02,-3.92
-8.690e-02,-3.92
-8.688e-02,-3.92
-8.686e-02,-4.08
-8.684e-02,-3.76
-8.682e-02,-3.92
-8.680e-02,-3.92
-8.678e-02,-3.84
-8.676e-02,-3.92
-8.674e-02,-3.76
-8.672e-02,-4
-8.670e-02,-3.84
-8.668e-02,-3.92
-8.666e-02,-3.84
-8.664e-02,-3.84
-8.662e-02,-4.08
-8.660e-02,-3.84
-8.658e-02,-3.84
-8.656e-02,-3.84
-8.654e-02,-4
-8.652e-02,-3.76
-8.650e-02,-3.92
-8.648e-02,-3.84
-8.646e-02,-3.84
-8.644e-02,-3.84
-8.642e-02,-3.92
-8.640e-02,-4.08
-8.638e-02,-4.16
-8.636e-02,-3.92
-8.634e-02,-3.6
-8.632e-02,-3.68
-8.630e-02,-3.68
-8.628e-02,-4.16
-8.626e-02,-3.92
-8.624e-02,-3.76
-8.622e-02,-3.84
-8.620e-02,-3.84
-8.618e-02,-3.68
-8.616e-02,-3.92
-8.614e-02,-3.6
-8.612e-02,-3.68
-8.610e-02,-3.68
-8.608e-02,-3.68
-8.606e-02,-3.76
-8.604e-02,-3.84
-8.602e-02,-3.84
-8.600e-02,-3.52
-8.598e-02,-3.84
-8.596e-02,-3.6
-8.594e-02,-3.68
-8.592e-02,-3.44
-8.590e-02,-3.68
-8.588e-02,-3.68
-8.586e-02,-3.76
-8.584e-02,-3.76
-8.582e-02,-3.52
-8.580e-02,-3.76
-8.578e-02,-3.76
-8.576e-02,-3.84
-8.574e-02,-3.92
-8.572e-02,-3.84
-8.570e-02,-3.84
-8.568e-02,-3.76
-8.566e-02,-3.84
-8.564e-02,-3.52
-8.562e-02,-3.52
-8.560e-02,-3.44
-8.558e-02,-3.44
-8.556e-02,-3.52
-8.554e-02,-3.52
-8.552e-02,-3.36
-8.550e-02,-3.52
-8.548e-02,-3.28
-8.546e-02,-3.2
-8.544e-02,-3.04
-8.542e-02,-3.04
-8.540e-02,-3.04
-8.538e-02,-3.12
-8.536e-02,-2.88
-8.534e-02,-3.04
-8.532e-02,-3.12
-8.530e-02,-2.8
-8.528e-02,-2.8
-8.526e-02,-2.88
-8.524e-02,-2.64
-8.522e-02,-2.72
-8.520e-02,-2.64
-8.518e-02,-2.64
-8.516e-02,-2.56
-8.514e-02,-2.64
-8.512e-02,-2.72
-8.510e-02,-2.8
-8.508e-02,-2.56
-8.506e-02,-2.64
-8.504e-02,-2.4
-8.502e-02,-2.56
-8.500e-02,-2.48
-8.498e-02,-2.4
-8.496e-02,-2.48
-8.494e-02,-2.16
-8.492e-02,-2.32
-8.490e-02,-2.24
-8.488e-02,-2.16
-8.486e-02,-2.24
-8.484e-02,-2.4
-8.482e-02,-2.24
-8.480e-02,-2
-8.478e-02,-2.16
-8.476e-02,-2.32
-8.474e-02,-2.08
-8.472e-02,-2.08
-8.470e-02,-2.32
-8.468e-02,-2.08
-8.466e-02,-1.76
-8.464e-02,-2
-8.462e-02,-1.92
-8.460e-02,-1.84
-8.458e-02,-1.84
-8.456e-02,-1.76
-8.454e-02,-1.92
-8.452e-02,-1.84
-8.450e-02,-1.92
-8.448e-02,-1.84
-8.446e-02,-1.84
-8.444e-02,-2.08
-8.442e-02,-1.76
-8.440e-02,-1.68
-8.438e-02,-1.44
-8.436e-02,-1.44
-8.434e-02,-1.68
-8.432e-02,-1.6
-8.430e-02,-1.76
-8.428e-02,-1.76
-8.426e-02,-1.28
-8.424e-02,-1.52
-8.422e-02,-1.44
-8.420e-02,-1.52
-8.418e-02,-1.44
-8.416e-02,-1.52
-8.414e-02,-1.28
-8.412e-02,-1.2
-8.410e-02,-1.28
-8.408e-02,-1.28
-8.406e-02,-1.28
-8.404e-02,-1.28
-8.402e-02,-1.28
-8.400e-02,-0.96
-8.398e-02,-1.04
-8.396e-02,-1.12
-8.394e-02,-1.04
-8.392e-02,-1.04
-8.390e-02,-1.04
-8.388e-02,-0.96
-8.386e-02,-1.12
-8.384e-02,-0.8
-8.382e-02,-0.88
-8.380e-02,-0.64
-8.378e-02,-0.88
-8.376e-02,-0.64
-8.374e-02,-0.72
-8.372e-02,-0.48
-8.370e-02,-0.4
-8.368e-02,-0.64
-8.366e-02,-0.8
-8.364e-02,-0.64
-8.362e-02,-0.56
-8.360e-02,-0.64
-8.358e-02,-0.48
-8.356e-02,-0.48
-8.354e-02,-0.48
-8.352e-02,-0.48
-8.350e-02,-0.4
-8.348e-02,-0.24
-8.346e-02,-0.24
-8.344e-02,-0.16
-8.342e-02,-0.24
-8.340e-02,-0.4
-8.338e-02,-0.08
-8.336e-02,0
-8.334e-02,-0.08
-8.332e-02,-0.08
-8.330e-02,-0.16
-8.328e-02,0.08
-8.326e-02,0.08
-8.324e-02,0.08
-8.322e-02,0.08
-8.320e-02,0.08
-8.318e-02,0
-8.316e-02,0
-8.314e-02,0.24
-8.312e-02,-0.08
-8.310e-02,-1.52
-8.308e-02,-0.56
-8.306e-02,-0.64
-8.304e-02,-0.56
-8.302e-02,0.08
-8.300e-02,0.64
-8.298e-02,0.8
-8.296e-02,0.48
-8.294e-02,0.64
-8.292e-02,0.72
-8.290e-02,0.88
-8.288e-02,0.88
-8.286e-02,1.28
-8.284e-02,1.44
-8.282e-02,1.76
-8.280e-02,1.44
-8.278e-02,-0.24
-8.276e-02,0.08
-8.274e-02,0
-8.272e-02,0.64
-8.270e-02,0.32
-8.268e-02,0.64
-8.266e-02,0.8
-8.264e-02,0.72
-8.262e-02,0.48
-8.260e-02,0.4
-8.258e-02,0.56
-8.256e-02,0.64
-8.254e-02,0.72
-8.252e-02,0.64
-8.250e-02,0.72
-8.248e-02,0.8
-8.246e-02,0.88
-8.244e-02,0.88
-8.242e-02,0.96
-8.240e-02,0.88
-8.238e-02,0.96
-8.236e-02,1.04
-8.234e-02,1.04
-8.232e-02,0.96
-8.230e-02,0.96
-8.228e-02,1.04
-8.226e-02,1.04
-8.224e-02,1.2
-8.222e-02,1.04
-8.220e-02,1.2
-8.218e-02,1.28
-8.216e-02,1.36
-8.214e-02,1.36
-8.212e-02,1.28
-8.210e-02,1.36
-8.208e-02,1.36
-8.206e-02,1.36
-8.204e-02,1.6
-8.202e-02,1.44
-8.200e-02,1.68
-8.198e-02,1.6
-8.196e-02,1.6
-8.194e-02,1.52
-8.192e-02,1.6
-8.190e-02,1.68
-8.188e-02,1.76
-8.186e-02,1.76
-8.184e-02,1.76
-8.182e-02,1.92
-8.180e-02,1.76
-8.178e-02,2
-8.176e-02,2
-8.174e-02,1.92
-8.172e-02,1.92
-8.170e-02,2
-8.168e-02,2
-8.166e-02,1.76
-8.164e-02,1.92
-8.162e-02,2
-8.160e-02,2.32
-8.158e-02,2.32
-8.156e-02,2.4
-8.154e-02,2.4
-8.152e-02,2.32
-8.150e-02,2.08
-8.148e-02,2.24
-8.146e-02,2.24
-8.144e-02,2.32
-8.142e-02,2.32
-8.140e-02,2.32
-8.138e-02,2.48
-8.136e-02,2.4
-8.134e-02,2.4
-8.132e-02,2.48
-8.130e-02,2.56
-8.128e-02,2.56
-8.126e-02,2.48
-8.124e-02,2.56
-8.122e-02,2.56
-8.120e-02,2.64
-8.118e-02,2.8
-8.116e-02,2.8
-8.114e-02,2.88
-8.112e-02,2.64
-8.110e-02,2.88
-8.108e-02,2.88
-8.106e-02,2.8
-8.104e-02,2.72
-8.102e-02,2.96
-8.100e-02,2.96
-8.098e-02,3.04
-8.096e-02,3.12
-8.094e-02,2.96
-8.092e-02,3.12
-8.090e-02,3.2
-8.088e-02,3.04
-8.086e-02,3.12
-8.084e-02,3.12
-8.082e-02,3.28
-8.080e-02,3.2
-8.078e-02,3.12
-8.076e-02,3.36
-8.074e-02,3.12
-8.072e-02,3.28
-8.070e-02,3.36
-8.068e-02,3.44
-8.066e-02,3.44
-8.064e-02,3.2
-8.062e-02,3.28
-8.060e-02,3.36
-8.058e-02,3.52
-8.056e-02,3.44
-8.054e-02,3.6
-8.052e-02,3.52
-8.050e-02,3.52
-8.048e-02,3.44
-8.046e-02,3.6
-8.044e-02,3.6
-8.042e-02,3.76
-8.040e-02,3.76
-8.038e-02,3.76
-8.036e-02,3.76
-8.034e-02,3.84
-8.032e-02,3.68
-8.030e-02,3.76
-8.028e-02,3.84
-8.026e-02,4
-8.024e-02,3.84
-8.022e-02,3.76
-8.020e-02,3.68
-8.018e-02,3.92
-8.016e-02,3.76
-8.014e-02,3.68
-8.012e-02,3.84
-8.010e-02,4
-8.008e-02,4.08
-8.006e-02,3.92
-8.004e-02,3.68
-8.002e-02,3.76
-8.000e-02,3.84
-7.998e-02,3.92
-7.996e-02,3.92
-7.994e-02,3.92
-7.992e-02,3.84
-7.990e-02,3.92
-7.988e-02,3.84
-7.986e-02,3.84
-7.984e-02,4
-7.982e-02,3.92
-7.980e-02,3.84
-7.978e-02,3.92
-7.976e-02,4.16
-7.974e-02,4
-7.972e-02,3.84
-7.970e-02,3.84
-7.968e-02,3.84
-7.966e-02,3.84
-7.964e-02,3.92
-7.962e-02,4
-7.960e-02,3.84
-7.958e-02,4
-7.956e-02,4
-7.954e-02,4
-7.952e-02,3.92
-7.950e-02,3.92
-7.948e-02,4
-7.946e-02,3.92
-7.944e-02,4.08
-7.942e-02,3.92
-7.940e-02,4
-7.938e-02,3.84
-7.936e-02,3.92
-7.934e-02,4
-7.932e-02,3.92
-7.930e-02,4
-7.928e-02,4.16
-7.926e-02,4.24
-7.924e-02,4.08
-7.922e-02,3.92
-7.920e-02,3.84
-7.918e-02,3.92
-7.916e-02,4.16
-7.914e-02,4
-7.912e-02,4
-7.910e-02,4
-7.908e-02,3.84
-7.906e-02,3.76
-7.904e-02,3.84
-7.902e-02,3.92
-7.900e-02,4.08
-7.898e-02,4.16
-7.896e-02,3.84
-7.894e-02,3.92
-7.892e-02,3.92
-7.890e-02,3.92
-7.888e-02,4
-7.886e-02,4.24
-7.884e-02,4.08
-7.882e-02,3.92
-7.880e-02,4
-7.878e-02,4
-7.876e-02,3.92
-7.874e-02,4
-7.872e-02,4
-7.870e-02,4.08
-7.868e-02,3.84
-7.866e-02,4
-7.864e-02,3.76
-7.862e-02,3.92
-7.860e-02,4.16
-7.858e-02,4
-7.856e-02,3.84
-7.854e-02,3.76
-7.852e-02,3.92
-7.850e-02,4.08
-7.848e-02,3.84
-7.846e-02,3.76
-7.844e-02,3.84
-7.842e-02,4
-7.840e-02,3.92
-7.838e-02,3.84
-7.836e-02,3.76
-7.834e-02,3.92
-7.832e-02,3.84
-7.830e-02,3.92
-7.828e-02,3.84
-7.826e-02,3.84
-7.824e-02,4.08
-7.822e-02,4
-7.820e-02,3.92
-7.818e-02,3.84
-7.816e-02,3.84
-7.814e-02,3.84
-7.812e-02,3.68
-7.810e-02,4
-7.808e-02,3.92
-7.806e-02,3.76
-7.804e-02,3.6
-7.802e-02,3.92
-7.800e-02,3.84
-7.798e-02,3.76
-7.796e-02,3.76
-7.794e-02,3.76
-7.792e-02,3.84
-7.790e-02,3.84
-7.788e-02,3.84
-7.786e-02,3.76
-7.784e-02,3.76
-7.782e-02,4
-7.780e-02,3.68
-7.778e-02,3.76
-7.776e-02,3.6
-7.774e-02,3.76
-7.772e-02,3.68
-7.770e-02,3.84
-7.768e-02,3.76
-7.766e-02,3.76
-7.764e-02,3.76
-7.762e-02,3.6
-7.760e-02,3.68
-7.758e-02,3.6
-7.756e-02,3.68
-7.754e-02,3.6
-7.752e-02,3.68
-7.750e-02,3.6
-7.748e-02,3.76
-7.746e-02,3.44
-7.744e-02,3.76
-7.742e-02,3.76
-7.740e-02,3.76
-7.738e-02,3.84
-7.736e-02,3.68
-7.734e-02,3.52
-7.732e-02,3.6
-7.730e-02,3.6
-7.728e-02,3.2
-7.726e-02,3.28
-7.724e-02,3.36
-7.722e-02,3.36
-7.720e-02,3.12
-7.718e-02,3.12
-7.716e-02,3.12
-7.714e-02,3.04
-7.712e-02,2.96
-7.710e-02,2.96
-7.708e-02,3.04
-7.706e-02,3.04
-7.704e-02,2.96
-7.702e-02,2.96
-7.700e-02,2.96
-7.698e-02,3.04
-7.696e-02,2.96
-7.694e-02,2.88
-7.692e-02,2.88
-7.690e-02,2.8
-7.688e-02,2.72
-7.686e-02,2.64
-7.684e-02,2.72
-7.682e-02,2.72
-7.680e-02,2.64
-7.678e-02,2.72
-7.676e-02,2.64
-7.674e-02,2.64
-7.672e-02,2.64
-7.670e-02,2.64
-7.668e-02,2.56
-7.666e-02,2.4
-7.664e-02,2.4
-7.662e-02,2.4
-7.660e-02,2.4
-7.658e-02,2.32
-7.656e-02,2.32
-7.654e-02,2.24
-7.652e-02,2.24
-7.650e-02,2.24
-7.648e-02,2.32
-7.646e-02,2.32
-7.644e-02,2.08
-7.642e-02,2.16
-7.640e-02,2.24
-7.638e-02,2.08
-7.636e-02,2.16
-7.634e-02,2.08
-7.632e-02,1.92
-7.630e-02,1.76
-7.628e-02,1.76
-7.626e-02,2
-7.624e-02,1.76
-7.622e-02,2
-7.620e-02,2
-7.618e-02,1.76
-7.616e-02,1.84
-7.614e-02,1.84
-7.612e-02,1.84
-7.610e-02,1.92
-7.608e-02,1.76
-7.606e-02,1.52
-7.604e-02,1.52
-7.602e-02,1.6
-7.600e-02,1.6
-7.598e-02,1.6
-7.596e-02,1.6
-7.594e-02,1.6
-7.592e-02,1.68
-7.590e-02,1.6
-7.588e-02,1.52
-7.586e-02,1.6
-7.584e-02,1.2
-7.582e-02,1.28
-7.580e-02,1.28
-7.578e-02,1.2
-7.576e-02,1.28
-7.574e-02,1.36
-7.572e-02,1.28
-7.570e-02,1.28
-7.568e-02,1.28
-7.566e-02,1.2
-7.564e-02,1.12
-7.562e-02,1.04
-7.560e-02,1.04
-7.558e-02,1.04
-7.556e-02,1.12
-7.554e-02,0.96
-7.552e-02,1.04
-7.550e-02,0.88
-7.548e-02,0.88
-7.546e-02,0.8
-7.544e-02,0.72
-7.542e-02,0.56
-7.540e-02,0.56
-7.538e-02,0.48
-7.536e-02,0.72
